com\library\librarygr2\helpers\HtmlHelpers.class
com\library\librarygr2\servlets\LogoutServlet.class
com\library\librarygr2\servlets\RemoveBookServlet.class
com\library\librarygr2\servlets\WelcomeSevlet.class
com\library\librarygr2\servlets\AddBookServlet.class
com\library\librarygr2\servlets\LoginServlet.class
com\library\librarygr2\servlets\DashboardServlet.class
com\library\librarygr2\beans\Book.class
com\library\librarygr2\servlets\UserLoginServlet.class
com\library\librarygr2\filters\UserFilter.class
com\library\librarygr2\beans\User.class
com\library\librarygr2\beans\Role.class
com\library\librarygr2\servlets\AdminLoginServlet.class
com\library\librarygr2\helpers\SimpleLibraryContextListener.class
com\library\librarygr2\filters\AdminFilter.class
com\library\librarygr2\servlets\AdminServlet.class
